{
  "Ingredients": [
    {
      "Name": "Adamantium Ore",
      "Properties": [
        "Blind",
        "Restore Luck",
        "Paralyze",
        "Recall"
      ]
    },
    {
      "Name": "Alit Hide",
      "Properties": [
        "Drain Health",
        "Resist Paralysis",
        "Swift Swim",
        "Damage Magicka"
      ],
      "Vendors": [
        {
          "Name": "Anis Seloth",
          "Location": "Sadrith Mora, Anis Seloth: Alchemist"
        },
        {
          "Name": "Craetia Jullalian",
          "Location": "Vivec Foreign Quarter, Guild of Mages"
        },
        {
          "Name": "Daynali Dren",
          "Location": "Tel Mora, Lower Tower"
        },
        {
          "Name": "Ernand Thierry",
          "Location": "Caldera, Guild of Mages"
        },
        {
          "Name": "Nalcarya of White Haven",
          "Location": "Balmora, Nalcarya of White Haven: Fine Alchemist"
        },
        {
          "Name": "Sedris Omalen",
          "Location": "Maar Gan, Outpost"
        }
      ]
    },
    {
      "Name": "Ampoule Pod",
      "Properties": [
        "Water Breathing",
        "Night Eye",
        "Damage Magicka",
        "Drain Strength"
      ],
      "Vendors": [
        {
          "Name": "Cienne Sintieve",
          "Location": "Ald'ruhn, Cienne Sintieve: Alchemist"
        },
        {
          "Name": "Craetia Jullalian",
          "Location": "Vivec Foreign Quarter, Guild of Mages"
        },
        {
          "Name": "Ernand Thierry",
          "Location": "Caldera, Guild of Mages"
        },
        {
          "Name": "Jolda",
          "Location": "Tel Mora, Jolda: Apothecary"
        },
        {
          "Name": "Tusamircil",
          "Location": "Wolverine Hall, Mages Guild"
        }
      ]
    },
    {
      "Name": "Ash Salts",
      "Properties": [
        "Dispel",
        "Resist Frost",
        "Burden"
      ],
      "Vendors": [
        {
          "Name": "Eldrilu Dalen",
          "Location": "Vos, Vos Chapel"
        },
        {
          "Name": "Folvys Andalor",
          "Location": "Ald'ruhn Temple"
        },
        {
          "Name": "Relms Gilvilo",
          "Location": "Vivec, Redoran Temple Shrine"
        },
        {
          "Name": "Scelian Plebo",
          "Location": "Wolverine Hall, Imperial Shrine"
        },
        {
          "Name": "Somutis Vunnis",
          "Location": "Moonmoth Legion Fort, Interior"
        },
        {
          "Name": "Telis Salvani",
          "Location": "Balmora, Temple"
        },
        {
          "Name": "Tivam Sadri",
          "Location": "Holamayan Monastery"
        }
      ]
    },
    {
      "Name": "Ash Yam",
      "Properties": [
        "Fortify Health",
        "Fortify Speed",
        "Reflect",
        "Detect Enchantment"
      ],
      "Vendors": [
        {
          "Name": "Aunius Autrus",
          "Location": "Wolverine Hall, Imperial Shrine"
        },
        {
          "Name": "Chaplain Ogrul",
          "Location": "Gnisis, Fort Darius"
        },
        {
          "Name": "Dulian",
          "Location": "Buckmoth Legion Fort, Interior"
        },
        {
          "Name": "Eldrilu Dalen",
          "Location": "Vos, Vos Chapel"
        },
        {
          "Name": "J'Rasha",
          "Location": "Vivec, Foreign Quarter, J'Rasha: Healer"
        },
        {
          "Name": "Milar Maryon",
          "Location": "Tel Vos, Services Tower"
        },
        {
          "Name": "Ygfa",
          "Location": "Pelagiad, Fort Pelagiad"
        },
        {
          "Name": "Zanmulk Sammalamus",
          "Location": "Gnisis, Temple"
        }
      ]
    },
    {
      "Name": "Bear Pelt",
      "Properties": [
        "Drain Endurance",
        "Fortify Speed",
        "Reflect",
        "Lightning Shield"
      ]
    },
    {
      "Name": "Bittergreen Petals",
      "Properties": [
        "Restore Health",
        "Frost Shield",
        "Drain Alteration",
        "Drain Luck"
      ],
      "Vendors": [
        {
          "Name": "Bildren Areleth",
          "Location": "Tel Aruhn, Bildren Areleth: Apothecary"
        },
        {
          "Name": "Cocistian Quaspus",
          "Location": "Buckmoth Legion Fort"
        },
        {
          "Name": "Scelian Plebo",
          "Location": "Wolverine Hall, Imperial Shrine"
        },
        {
          "Name": "Telis Salvani",
          "Location": "Balmora, Temple"
        },
        {
          "Name": "Threvul Serethi",
          "Location": "Sadrith Mora, Thervul Serethi: Healer"
        },
        {
          "Name": "Vaval Selas",
          "Location": "Vivec, St. Olms Temple"
        },
        {
          "Name": "Ygfa",
          "Location": "Pelagiad, Fort Pelagiad"
        },
        {
          "Name": "Zanmulk Sammalamus",
          "Location": "Gnisis, Temple"
        }
      ]
    },
    {
      "Name": "Black Anther",
      "Properties": [
        "Dispel",
        "Resist Common Disease",
        "Drain Alteration",
        "Levitate"
      ],
      "Vendors": [
        {
          "Name": "Ajira",
          "Location": "Balmora, Guild of Mages"
        },
        {
          "Name": "Andil",
          "Location": "Tel Vos, Services Tower"
        },
        {
          "Name": "Aurane Frernis",
          "Location": "Vivec, Foreign Quarter, Aurane Frernis: Apothecary"
        },
        {
          "Name": "Brarayni Sarys",
          "Location": "Tel Aruhn, Tower Entry"
        },
        {
          "Name": "Daynali Dren",
          "Location": "Tel Mora, Lower Tower"
        },
        {
          "Name": "Nalcarya of White Haven",
          "Location": "Balmora, Nalcarya of White Haven: Fine Alchemist"
        }
      ]
    },
    {
      "Name": "Black Lichen",
      "Properties": [
        "Drain Speed",
        "Resist Fire",
        "Drain Personality",
        "Cure Paralyzation"
      ],
      "Vendors": [
        {
          "Name": "Dralval Andrano",
          "Location": "Balmora, Temple"
        },
        {
          "Name": "Irna Maryon",
          "Location": "Tel Aruhn, Tower Entry"
        },
        {
          "Name": "Jolda",
          "Location": "Tel Mora, Jolda: Apothecary"
        },
        {
          "Name": "Pierlette Rostorard",
          "Location": "Sadrith Mora, Pierlette Rostorard: Apothecary"
        },
        {
          "Name": "Relms Gilvilo",
          "Location": "Vivec, Redoran Temple Shrine"
        },
        {
          "Name": "Sedris Omalen",
          "Location": "Maar Gan, Outpost"
        },
        {
          "Name": "Somutis Vunnis",
          "Location": "Moonmoth Legion Fort, Interior"
        }
      ]
    },
    {
      "Name": "Bloat",
      "Properties": [
        "Drain Luck",
        "Fortify Health",
        "Fortify Strength",
        "Damage Magicka"
      ],
      "Vendors": [
        {
          "Name": "Anarenen",
          "Location": "Ald'ruhn, Guild of Mages"
        },
        {
          "Name": "Anis Seloth",
          "Location": "Sadrith Mora, Anis Seloth: Alchemist"
        },
        {
          "Name": "Aunius Autrus",
          "Location": "Wolverine Hall, Imperial Shrine"
        },
        {
          "Name": "Craetia Jullalian",
          "Location": "Vivec Foreign Quarter, Guild of Mages"
        },
        {
          "Name": "Daynali Dren",
          "Location": "Tel Mora, Lower Tower"
        },
        {
          "Name": "Mehra Drora",
          "Location": "Gnisis, Temple"
        },
        {
          "Name": "Nalcarya of White Haven",
          "Location": "Balmora, Nalcarya of White Haven: Fine Alchemist"
        }
      ]
    },
    {
      "Name": "Bonemeal",
      "Properties": [
        "Resist Shock",
        "Swift Swim",
        "Drain Endurance",
        "Drain Magicka"
      ],
      "Vendors": [
        {
          "Name": "Anarenen",
          "Location": "Ald'ruhn, Guild of Mages"
        },
        {
          "Name": "Anis Seloth",
          "Location": "Sadrith Mora, Anis Seloth: Alchemist"
        },
        {
          "Name": "Garas Seloth",
          "Location": "Vivec, Telvanni Alchemist"
        },
        {
          "Name": "Milar Maryon",
          "Location": "Tel Vos, Services Tower"
        },
        {
          "Name": "Scelian Plebo",
          "Location": "Wolverine Hall, Imperial Shrine"
        },
        {
          "Name": "Ulumpha gra-Sharob",
          "Location": "Gnisis, Fort Darius"
        }
      ]
    },
    {
      "Name": "Bread",
      "Properties": [
        "Restore Endurance"
      ]
    },
    {
      "Name": "Bristleback Leather",
      "Properties": [
        "Ingredient",
        "Fortify Willpower",
        "Resist Fire",
        "Poison"
      ]
    },
    {
      "Name": "Bungler's Bane",
      "Properties": [
        "Drain Personality",
        "Drain Alteration",
        "Detect Key",
        "Drain Speed"
      ],
      "Vendors": [
        {
          "Name": "Danoso Andrano",
          "Location": "Ald'ruhn, Temple"
        },
        {
          "Name": "Dralval Andrano",
          "Location": "Balmora, Temple"
        },
        {
          "Name": "Ganalyn Saram",
          "Location": "Vivec, Hlaalu Alchemist"
        },
        {
          "Name": "Jolda",
          "Location": "Tel Mora, Jolda: Apothecary"
        },
        {
          "Name": "Tusamircil",
          "Location": "Wolverine Hall, Mages Guild"
        }
      ]
    },
    {
      "Name": "Chokeweed",
      "Properties": [
        "Drain Intelligence",
        "Restore Endurance",
        "Cure Blight Disease",
        "Drain Strength"
      ],
      "Vendors": [
        {
          "Name": "Felara Andrethi",
          "Location": "Tel Aruhn, Tower Living Quarters"
        },
        {
          "Name": "J'Rasha",
          "Location": "Vivec, Foreign Quarter, J'Rasha: Healer"
        },
        {
          "Name": "Scelian Plebo",
          "Location": "Wolverine Hall, Imperial Shrine"
        },
        {
          "Name": "Telis Salvani",
          "Location": "Balmora, Temple"
        },
        {
          "Name": "Vaval Selas",
          "Location": "Vivec, St. Olms Temple"
        },
        {
          "Name": "Ygfa",
          "Location": "Pelagiad, Fort Pelagiad"
        }
      ]
    },
    {
      "Name": "Coda Flower",
      "Properties": [
        "Drain Magicka",
        "Invisibility",
        "Drain Health",
        "Drain Fatigue"
      ],
      "Vendors": [
        {
          "Name": "Anis Seloth",
          "Location": "Sadrith Mora, Anis Seloth: Alchemist"
        },
        {
          "Name": "Aurane Frernis",
          "Location": "Vivec, Foreign Quarter, Aurane Frernis: Apothecary"
        },
        {
          "Name": "Brarayni Sarys",
          "Location": "Tel Aruhn, Tower Entry"
        },
        {
          "Name": "Cienne Sintieve",
          "Location": "Ald'ruhn, Cienne Sintieve: Alchemist"
        },
        {
          "Name": "Danoso Andrano",
          "Location": "Ald'ruhn, Temple"
        },
        {
          "Name": "Ernand Thierry",
          "Location": "Caldera, Guild of Mages"
        },
        {
          "Name": "Peragon",
          "Location": "Moonmoth Legion Fort, Interior"
        }
      ]
    },
    {
      "Name": "Comberry",
      "Properties": [
        "Drain Endurance",
        "Restore Luck",
        "Feather",
        "Recall"
      ],
      "Vendors": [
        {
          "Name": "Ajira",
          "Location": "Balmora, Guild of Mages"
        },
        {
          "Name": "Anarenen",
          "Location": "Ald'ruhn, Guild of Mages"
        },
        {
          "Name": "Andilu Drothan",
          "Location": "Vivec Foreign Quarter, Andilu Drothan: Alchemist"
        },
        {
          "Name": "Felara Andrethi",
          "Location": "Tel Aruhn, Tower Living Quarters"
        },
        {
          "Name": "Milar Maryon",
          "Location": "Tel Vos, Services Tower"
        },
        {
          "Name": "Scelian Plebo",
          "Location": "Wolverine Hall, Imperial Shrine"
        },
        {
          "Name": "Telis Salvani",
          "Location": "Balmora, Temple"
        }
      ]
    },
    {
      "Name": "Corkbulb Root",
      "Properties": [
        "Cure Common Disease",
        "Restore Fatigue",
        "Light",
        "Fortify Intelligence"
      ],
      "Vendors": [
        {
          "Name": "Arrille",
          "Location": "Seyda Neen, Arrille's Tradehouse"
        },
        {
          "Name": "Craetia Jullalian",
          "Location": "Vivec Foreign Quarter, Guild of Mages"
        },
        {
          "Name": "Eldrilu Dalen",
          "Location": "Vos, Vos Chapel"
        },
        {
          "Name": "Ernand Thierry",
          "Location": "Caldera, Guild of Mages"
        },
        {
          "Name": "Ganalyn Saram",
          "Location": "Vivec, Hlaalu Alchemist"
        },
        {
          "Name": "Guls Llervu",
          "Location": "Ald'ruhn, Guls Llervu's House"
        },
        {
          "Name": "Llarara Omayn",
          "Location": "Balmora, Temple"
        },
        {
          "Name": "Sedris Omalen",
          "Location": "Maar Gan, Outpost"
        },
        {
          "Name": "Tivam Sadri",
          "Location": "Holamayan Monastery"
        },
        {
          "Name": "Tusamircil",
          "Location": "Wolverine Hall, Mages Guild"
        }
      ]
    },
    {
      "Name": "Corprus Weepings",
      "Properties": [
        "Drain Endurance",
        "Fortify Intelligence",
        "Drain Strength",
        "Restore Fatigue"
      ],
      "Vendors": [
        {
          "Name": "Arnand Liric",
          "Location": "Buckmoth Legion Fort, Interior"
        },
        {
          "Name": "Aurane Frernis",
          "Location": "Vivec, Foreign Quarter, Aurane Frernis: Apothecary"
        },
        {
          "Name": "Folvys Andalor",
          "Location": "Ald'ruhn Temple"
        },
        {
          "Name": "Scelian Plebo",
          "Location": "Wolverine Hall, Imperial Shrine"
        },
        {
          "Name": "Threvul Serethi",
          "Location": "Sadrith Mora, Thervul Serethi: Healer"
        }
      ]
    },
    {
      "Name": "Crab Meat",
      "Properties": [
        "Restore Endurance",
        "Resist Poison",
        "Light",
        "Restore Intelligence"
      ],
      "Vendors": [
        {
          "Name": "Ajira",
          "Location": "Balmora, Guild of Mages"
        },
        {
          "Name": "Anarenen",
          "Location": "Ald'ruhn, Guild of Mages"
        },
        {
          "Name": "Chaplain Ogrul",
          "Location": "Gnisis, Fort Darius"
        },
        {
          "Name": "Craetia Jullalian",
          "Location": "Vivec Foreign Quarter, Guild of Mages"
        },
        {
          "Name": "Daynali Dren",
          "Location": "Tel Mora, Lower Tower"
        },
        {
          "Name": "Milar Maryon",
          "Location": "Tel Vos, Services Tower"
        },
        {
          "Name": "Tusamircil",
          "Location": "Wolverine Hall, Mages Guild"
        }
      ]
    },
    {
      "Name": "Daedra Skin",
      "Properties": [
        "Fortify Speed",
        "Cure Blight Disease",
        "Night Eye",
        "Spell Absorption"
      ],
      "Vendors": [
        {
          "Name": "Anis Seloth",
          "Location": "Sadrith Mora, Anis Seloth: Alchemist"
        },
        {
          "Name": "Brarayni Sarys",
          "Location": "Tel Aruhn, Tower Entry"
        },
        {
          "Name": "Garas Seloth",
          "Location": "Vivec, Telvanni Alchemist"
        },
        {
          "Name": "Nalcarya of White Haven",
          "Location": "Balmora, Nalcarya of White Haven: Fine Alchemist"
        }
      ]
    },
    {
      "Name": "Daedra's Heart",
      "Properties": [
        "Restore Luck",
        "Fortify Attack",
        "Dispel",
        "Lightning Shield"
      ],
      "Vendors": [
        {
          "Name": "Anis Seloth",
          "Location": "Sadrith Mora, Anis Seloth: Alchemist"
        },
        {
          "Name": "Craetia Jullalian",
          "Location": "Vivec Foreign Quarter, Guild of Mages"
        },
        {
          "Name": "Gils Drelas",
          "Location": "Tel Branora, Upper Tower: Therana's Chamber"
        },
        {
          "Name": "Nalcarya of White Haven",
          "Location": "Balmora, Nalcarya of White Haven: Fine Alchemist"
        }
      ]
    },
    {
      "Name": "Diamond",
      "Properties": [
        "Dispel",
        "Frost Shield",
        "Recall",
        "Detect Enchantment"
      ],
      "Vendors": [
        {
          "Name": "Anarenen",
          "Location": "Ald'ruhn, Guild of Mages"
        },
        {
          "Name": "Anis Seloth",
          "Location": "Sadrith Mora, Anis Seloth: Alchemist"
        },
        {
          "Name": "Brarayni Sarys",
          "Location": "Tel Aruhn, Tower Entry"
        },
        {
          "Name": "Craetia Jullalian",
          "Location": "Vivec Foreign Quarter, Guild of Mages"
        },
        {
          "Name": "Daynali Dren",
          "Location": "Tel Mora, Lower Tower"
        },
        {
          "Name": "Nalcarya of White Haven",
          "Location": "Balmora, Nalcarya of White Haven: Fine Alchemist"
        }
      ]
    },
    {
      "Name": "Dreugh Wax",
      "Properties": [
        "Fortify Speed",
        "Restore Speed",
        "Drain Intelligence",
        "Drain Strength"
      ],
      "Vendors": [
        {
          "Name": "Danoso Andrano",
          "Location": "Ald'ruhn, Temple"
        },
        {
          "Name": "Jolda",
          "Location": "Tel Mora, Jolda: Apothecary"
        },
        {
          "Name": "Mehra Drora",
          "Location": "Gnisis, Temple"
        },
        {
          "Name": "Pierlette Rostorard",
          "Location": "Sadrith Mora, Pierlette Rostorard: Apothecary"
        },
        {
          "Name": "Relms Gilvilo",
          "Location": "Vivec, Redoran Temple Shrine"
        },
        {
          "Name": "Salen Ravel",
          "Location": "Maar Gan, Shrine"
        },
        {
          "Name": "Somutis Vunnis",
          "Location": "Moonmoth Legion Fort, Interior"
        }
      ]
    },
    {
      "Name": "Durzog Meat",
      "Properties": [
        "Fire Shield",
        "Fortify Speed",
        "Ingredient",
        "Damage Intelligence"
      ]
    },
    {
      "Name": "Ectoplasm",
      "Properties": [
        "Fire Shield",
        "Damage Magicka",
        "Drain Speed",
        "Drain Fatigue"
      ],
      "Vendors": [
        {
          "Name": "Bildren Areleth",
          "Location": "Tel Aruhn, Bildren Areleth: Apothecary"
        },
        {
          "Name": "Danoso Andrano",
          "Location": "Ald'ruhn, Temple"
        },
        {
          "Name": "Galuro Belan",
          "Location": "Vivec, Telvanni Apothecary"
        },
        {
          "Name": "Llarara Omayn",
          "Location": "Balmora, Temple"
        },
        {
          "Name": "Pierlette Rostorard",
          "Location": "Sadrith Mora, Pierlette Rostorard: Apothecary"
        },
        {
          "Name": "Salen Ravel",
          "Location": "Maar Gan, Shrine"
        },
        {
          "Name": "Tivam Sadri",
          "Location": "Holamayan Monastery"
        }
      ]
    },
    {
      "Name": "Emerald",
      "Properties": [
        "Fortify Luck",
        "Restore Fatigue",
        "Dispel",
        "Drain Alteration"
      ],
      "Vendors": [
        {
          "Name": "Cocistian Quaspus",
          "Location": "Buckmoth Legion Fort"
        },
        {
          "Name": "Craetia Jullalian",
          "Location": "Vivec Foreign Quarter, Guild of Mages"
        },
        {
          "Name": "Folvys Andalor",
          "Location": "Ald'ruhn Temple"
        },
        {
          "Name": "Irna Maryon",
          "Location": "Tel Aruhn, Tower Entry"
        },
        {
          "Name": "Scelian Plebo",
          "Location": "Wolverine Hall, Imperial Shrine"
        }
      ]
    },
    {
      "Name": "Fire Petal",
      "Properties": [
        "Resist Common Disease",
        "Drain Fatigue",
        "Restore Willpower",
        "Night Eye"
      ],
      "Vendors": [
        {
          "Name": "Cocistian Quaspus",
          "Location": "Buckmoth Legion Fort"
        },
        {
          "Name": "Galuro Belan",
          "Location": "Vivec, Telvanni Apothecary"
        },
        {
          "Name": "Irna Maryon",
          "Location": "Tel Aruhn, Tower Entry"
        },
        {
          "Name": "Mehra Drora",
          "Location": "Gnisis, Temple"
        },
        {
          "Name": "Pierlette Rostorard",
          "Location": "Sadrith Mora, Pierlette Rostorard: Apothecary"
        },
        {
          "Name": "Somutis Vunnis",
          "Location": "Moonmoth Legion Fort, Interior"
        }
      ]
    },
    {
      "Name": "Fire Salts",
      "Properties": [
        "Drain Fatigue",
        "Fire Shield",
        "Resist Fire",
        "Feather"
      ],
      "Vendors": [
        {
          "Name": "Anarenen",
          "Location": "Ald'ruhn, Guild of Mages"
        },
        {
          "Name": "Anis Seloth",
          "Location": "Sadrith Mora, Anis Seloth: Alchemist"
        },
        {
          "Name": "Craetia Jullalian",
          "Location": "Vivec Foreign Quarter, Guild of Mages"
        },
        {
          "Name": "Eldrilu Dalen",
          "Location": "Vos, Vos Chapel"
        },
        {
          "Name": "Gils Drelas",
          "Location": "Tel Branora, Upper Tower: Therana's Chamber"
        },
        {
          "Name": "Nalcarya of White Haven",
          "Location": "Balmora, Nalcarya of White Haven: Fine Alchemist"
        },
        {
          "Name": "Relms Gilvilo",
          "Location": "Vivec, Redoran Temple Shrine"
        }
      ]
    },
    {
      "Name": "Flaming Eye of the Lightkeeper",
      "Properties": [
        "Resist Fire",
        "Lightning Shield",
        "Drain Luck",
        "Fortify Speed"
      ]
    },
    {
      "Name": "Frost Salts",
      "Properties": [
        "Drain Personality",
        "Restore Luck",
        "Frost Damage",
        "Resist Common Disease"
      ],
      "Vendors": [
        {
          "Name": "Anis Seloth",
          "Location": "Sadrith Mora, Anis Seloth: Alchemist"
        },
        {
          "Name": "Cienne Sintieve",
          "Location": "Ald'ruhn, Cienne Sintieve: Alchemist"
        },
        {
          "Name": "Craetia Jullalian",
          "Location": "Vivec Foreign Quarter, Guild of Mages"
        },
        {
          "Name": "Daynali Dren",
          "Location": "Tel Mora, Lower Tower"
        },
        {
          "Name": "Gils Drelas",
          "Location": "Tel Branora, Upper Tower: Therana's Chamber"
        },
        {
          "Name": "Nalcarya of White Haven",
          "Location": "Balmora, Nalcarya of White Haven: Fine Alchemist"
        },
        {
          "Name": "Ulumpha gra-Sharob",
          "Location": "Gnisis, Fort Darius"
        }
      ]
    },
    {
      "Name": "Ghoul Heart",
      "Properties": [
        "Night Eye",
        "Cure Paralyzation",
        "Fortify Agility"
      ],
      "Vendors": [
        {
          "Name": "Anis Seloth",
          "Location": "Sadrith Mora, Anis Seloth: Alchemist"
        },
        {
          "Name": "Brarayni Sarys",
          "Location": "Tel Aruhn, Tower Entry"
        },
        {
          "Name": "Craetia Jullalian",
          "Location": "Vivec Foreign Quarter, Guild of Mages"
        },
        {
          "Name": "Lloros Sarano",
          "Location": "Ald'ruhn, Temple"
        },
        {
          "Name": "Mehra Drora",
          "Location": "Gnisis, Temple"
        },
        {
          "Name": "Relms Gilvilo",
          "Location": "Vivec, Redoran Temple Shrine"
        },
        {
          "Name": "Tivam Sadri",
          "Location": "Holamayan Monastery"
        }
      ]
    },
    {
      "Name": "Gold Kanet",
      "Properties": [
        "Drain Fatigue",
        "Blind",
        "Drain Intelligence",
        "Restore Speed"
      ],
      "Vendors": [
        {
          "Name": "Andil",
          "Location": "Tel Vos, Services Tower"
        },
        {
          "Name": "Andilu Drothan",
          "Location": "Vivec Foreign Quarter, Andilu Drothan: Alchemist"
        },
        {
          "Name": "Daynali Dren",
          "Location": "Tel Mora, Lower Tower"
        },
        {
          "Name": "Gils Drelas",
          "Location": "Tel Branora, Upper Tower: Therana's Chamber"
        },
        {
          "Name": "Peragon",
          "Location": "Moonmoth Legion Fort, Interior"
        }
      ]
    },
    {
      "Name": "Golden Sedge Flowers",
      "Properties": [
        "Drain Luck",
        "Fortify Speed",
        "Fortify Agility",
        "Spell Absorption"
      ]
    },
    {
      "Name": "Grahl Eyeball",
      "Properties": [
        "Resist Fire",
        "Lightning Shield",
        "Drain Luck",
        "Fortify Luck"
      ]
    },
    {
      "Name": "Gravedust",
      "Properties": [
        "Drain Health",
        "Cure Blight Disease",
        "Drain Luck",
        "Restore Agility"
      ],
      "Vendors": [
        {
          "Name": "Arnand Liric",
          "Location": "Buckmoth Legion Fort, Interior"
        },
        {
          "Name": "Aunius Autrus",
          "Location": "Wolverine Hall, Imperial Shrine"
        },
        {
          "Name": "Llathyno Hlaalu",
          "Location": "Balmora, Temple"
        },
        {
          "Name": "Lloros Sarano",
          "Location": "Ald'ruhn, Temple"
        },
        {
          "Name": "Milar Maryon",
          "Location": "Tel Vos, Services Tower"
        },
        {
          "Name": "Salen Ravel",
          "Location": "Maar Gan, Shrine"
        },
        {
          "Name": "Tivam Sadri",
          "Location": "Holamayan Monastery"
        },
        {
          "Name": "Vaval Selas",
          "Location": "Vivec, St. Olms Temple"
        }
      ]
    },
    {
      "Name": "Gravetar",
      "Properties": [
        "Resist Fire",
        "Drain Fatigue",
        "Fortify Endurance",
        "Drain Intelligence"
      ]
    },
    {
      "Name": "Green Lichen",
      "Properties": [
        "Fortify Maximum Magicka",
        "Cure Blight Disease",
        "Drain Speed",
        "Drain Fatigue"
      ],
      "Vendors": [
        {
          "Name": "Aurane Frernis",
          "Location": "Vivec, Foreign Quarter, Aurane Frernis: Apothecary"
        },
        {
          "Name": "Dralval Andrano",
          "Location": "Balmora, Temple"
        },
        {
          "Name": "Irna Maryon",
          "Location": "Tel Aruhn, Tower Entry"
        },
        {
          "Name": "Scelian Plebo",
          "Location": "Wolverine Hall, Imperial Shrine"
        },
        {
          "Name": "Telis Salvani",
          "Location": "Balmora, Temple"
        }
      ]
    },
    {
      "Name": "Guar Hide",
      "Properties": [
        "Drain Endurance",
        "Fortify Attack",
        "Restore Magicka",
        "Fortify Intelligence"
      ],
      "Vendors": [
        {
          "Name": "Aunius Autrus",
          "Location": "Wolverine Hall, Imperial Shrine"
        },
        {
          "Name": "Eldrilu Dalen",
          "Location": "Vos, Vos Chapel"
        },
        {
          "Name": "Folvys Andalor",
          "Location": "Ald'ruhn Temple"
        },
        {
          "Name": "Ygfa",
          "Location": "Pelagiad, Fort Pelagiad"
        }
      ]
    },
    {
      "Name": "Hackle-Lo Leaf",
      "Properties": [
        "Restore Endurance",
        "Night Eye",
        "Vampirism",
        "Restore Intelligence"
      ],
      "Vendors": [
        {
          "Name": "Anis Seloth",
          "Location": "Sadrith Mora, Anis Seloth: Alchemist"
        },
        {
          "Name": "Daynali Dren",
          "Location": "Tel Mora, Lower Tower"
        },
        {
          "Name": "Garas Seloth",
          "Location": "Vivec, Telvanni Alchemist"
        },
        {
          "Name": "Gils Drelas",
          "Location": "Tel Branora, Upper Tower: Therana's Chamber"
        },
        {
          "Name": "Llarara Omayn",
          "Location": "Balmora, Temple"
        },
        {
          "Name": "Mehra Drora",
          "Location": "Gnisis, Temple"
        },
        {
          "Name": "Sedris Omalen",
          "Location": "Maar Gan, Outpost"
        },
        {
          "Name": "Tivam Sadri",
          "Location": "Holamayan Monastery"
        }
      ]
    },
    {
      "Name": "Heart of the Udyrfrykte",
      "Properties": [
        "Restore Luck",
        "Fortify Attack",
        "Dispel",
        "Lightning Shield"
      ]
    },
    {
      "Name": "Heartwood",
      "Properties": [
        "Restore Luck",
        "Fire Shield",
        "Drain Speed",
        "Water Walking"
      ]
    },
    {
      "Name": "Heather",
      "Properties": [
        "Restore Magicka",
        "Drain Willpower",
        "Drain Personality",
        "Drain Magicka"
      ],
      "Vendors": [
        {
          "Name": "Ajira",
          "Location": "Balmora, Guild of Mages"
        },
        {
          "Name": "Anarenen",
          "Location": "Ald'ruhn, Guild of Mages"
        },
        {
          "Name": "Andilu Drothan",
          "Location": "Vivec Foreign Quarter, Andilu Drothan: Alchemist"
        },
        {
          "Name": "Anis Seloth",
          "Location": "Sadrith Mora, Anis Seloth: Alchemist"
        },
        {
          "Name": "Bildren Areleth",
          "Location": "Tel Aruhn, Bildren Areleth: Apothecary"
        },
        {
          "Name": "Brarayni Sarys",
          "Location": "Tel Aruhn, Tower Entry"
        },
        {
          "Name": "Peragon",
          "Location": "Moonmoth Legion Fort, Interior"
        }
      ]
    },
    {
      "Name": "Holly Berries",
      "Properties": [
        "Resist Fire",
        "Frost Damage",
        "Fortify Willpower",
        "Water Walking"
      ]
    },
    {
      "Name": "Horker Tusk",
      "Properties": [
        "Drain Agility",
        "Fortify Health",
        "Fortify Magicka",
        "Damage Magicka"
      ]
    },
    {
      "Name": "Horn Lily Bulb",
      "Properties": [
        "Resist Magicka",
        "Drain Fatigue",
        "Restore Speed",
        "Restore Agility"
      ],
      "Vendors": [
        {
          "Name": "Galsa Andrano",
          "Location": "MournholdTemple: Infirmary"
        }
      ]
    },
    {
      "Name": "Hound Meat",
      "Properties": [
        "Restore Endurance",
        "Fortify Endurance",
        "Recall",
        "Detect Animal"
      ],
      "Vendors": [
        {
          "Name": "Ajira",
          "Location": "Balmora, Guild of Mages"
        },
        {
          "Name": "Arnand Liric",
          "Location": "Buckmoth Legion Fort, Interior"
        },
        {
          "Name": "Cienne Sintieve",
          "Location": "Ald'ruhn, Cienne Sintieve: Alchemist"
        },
        {
          "Name": "Daynali Dren",
          "Location": "Tel Mora, Lower Tower"
        },
        {
          "Name": "Ganalyn Saram",
          "Location": "Vivec, Hlaalu Alchemist"
        },
        {
          "Name": "Threvul Serethi",
          "Location": "Sadrith Mora, Thervul Serethi: Healer"
        },
        {
          "Name": "Tusamircil",
          "Location": "Wolverine Hall, Mages Guild"
        },
        {
          "Name": "Ulumpha gra-Sharob",
          "Location": "Gnisis, Fort Darius"
        },
        {
          "Name": "Zanmulk Sammalamus",
          "Location": "Gnisis, Temple"
        }
      ]
    },
    {
      "Name": "Human flesh",
      "Properties": [
        "Fortify Fatigue",
        "Drain Health",
        "Drain Magicka"
      ]
    },
    {
      "Name": "Hypha Facia",
      "Properties": [
        "Drain Intelligence",
        "Dispel",
        "Drain Endurance",
        "Detect Animal"
      ],
      "Vendors": [
        {
          "Name": "Anis Seloth",
          "Location": "Sadrith Mora, Anis Seloth: Alchemist"
        },
        {
          "Name": "Aurane Frernis",
          "Location": "Vivec, Foreign Quarter, Aurane Frernis: Apothecary"
        },
        {
          "Name": "Danoso Andrano",
          "Location": "Ald'ruhn, Temple"
        },
        {
          "Name": "Dralval Andrano",
          "Location": "Balmora, Temple"
        },
        {
          "Name": "Jolda",
          "Location": "Tel Mora, Jolda: Apothecary"
        }
      ]
    },
    {
      "Name": "Kagouti Hide",
      "Properties": [
        "Drain Endurance",
        "Fortify Personality",
        "Reflect",
        "Lightning Shield"
      ],
      "Vendors": [
        {
          "Name": "Bildren Areleth",
          "Location": "Tel Aruhn, Bildren Areleth: Apothecary"
        },
        {
          "Name": "Dralval Andrano",
          "Location": "Balmora, Temple"
        },
        {
          "Name": "Galuro Belan",
          "Location": "Vivec, Telvanni Apothecary"
        },
        {
          "Name": "Guls Llervu",
          "Location": "Ald'ruhn, Guls Llervu's House"
        },
        {
          "Name": "Pierlette Rostorard",
          "Location": "Sadrith Mora, Pierlette Rostorard: Apothecary"
        },
        {
          "Name": "Salen Ravel",
          "Location": "Maar Gan, Shrine"
        }
      ]
    },
    {
      "Name": "Kresh Fiber",
      "Properties": [
        "Restore Intelligence",
        "Fortify Maximum Magicka",
        "Drain Luck",
        "Drain Personality"
      ],
      "Vendors": [
        {
          "Name": "Andil",
          "Location": "Tel Vos, Services Tower"
        },
        {
          "Name": "Bildren Areleth",
          "Location": "Tel Aruhn, Bildren Areleth: Apothecary"
        },
        {
          "Name": "Cocistian Quaspus",
          "Location": "Buckmoth Legion Fort"
        },
        {
          "Name": "Galuro Belan",
          "Location": "Vivec, Telvanni Apothecary"
        },
        {
          "Name": "Llathyno Hlaalu",
          "Location": "Balmora, Temple"
        },
        {
          "Name": "Pierlette Rostorard",
          "Location": "Sadrith Mora, Pierlette Rostorard: Apothecary"
        },
        {
          "Name": "Somutis Vunnis",
          "Location": "Moonmoth Legion Fort, Interior"
        }
      ]
    },
    {
      "Name": "Kwama Cuttle",
      "Properties": [
        "Resist Paralysis",
        "Drain Endurance",
        "Water Breathing",
        "Vampirism"
      ],
      "Vendors": [
        {
          "Name": "Ajira",
          "Location": "Balmora, Guild of Mages"
        },
        {
          "Name": "Anis Seloth",
          "Location": "Sadrith Mora, Anis Seloth: Alchemist"
        },
        {
          "Name": "Cienne Sintieve",
          "Location": "Ald'ruhn, Cienne Sintieve: Alchemist"
        },
        {
          "Name": "Dulian",
          "Location": "Buckmoth Legion Fort, Interior"
        },
        {
          "Name": "Ganalyn Saram",
          "Location": "Vivec, Hlaalu Alchemist"
        },
        {
          "Name": "Irna Maryon",
          "Location": "Tel Aruhn, Tower Entry"
        },
        {
          "Name": "Nalcarya of White Haven",
          "Location": "Balmora, Nalcarya of White Haven: Fine Alchemist"
        },
        {
          "Name": "Tusamircil",
          "Location": "Wolverine Hall, Mages Guild"
        }
      ]
    },
    {
      "Name": "Large Corprusmeat Hunk",
      "Properties": [
        "Drain Endurance",
        "Drain Fatigue",
        "Drain Luck"
      ]
    },
    {
      "Name": "Large Kwama Egg",
      "Properties": [
        "Restore Endurance",
        "Night Eye",
        "Frost Damage",
        "Fortify Fatigue"
      ]
    },
    {
      "Name": "Large Wrapped Corprusmeat",
      "Properties": [
        "Drain Endurance",
        "Drain Fatigue",
        "Drain Luck"
      ]
    },
    {
      "Name": "Lloramor Spines",
      "Properties": [
        "Restore Willpower",
        "Frost Shield",
        "Paralyze",
        "Detect Animal"
      ]
    },
    {
      "Name": "Luminous Russula",
      "Properties": [
        "Vampirism",
        "Drain Endurance",
        "Paralyze"
      ],
      "Vendors": [
        {
          "Name": "Anis Seloth",
          "Location": "Sadrith Mora, Anis Seloth: Alchemist"
        },
        {
          "Name": "Ernand Thierry",
          "Location": "Caldera, Guild of Mages"
        },
        {
          "Name": "Jolda",
          "Location": "Tel Mora, Jolda: Apothecary"
        },
        {
          "Name": "Peragon",
          "Location": "Moonmoth Legion Fort, Interior"
        }
      ]
    },
    {
      "Name": "Marshmerrow",
      "Properties": [
        "Restore Fatigue",
        "Detect Animal",
        "Drain Strength",
        "Drain Endurance"
      ],
      "Vendors": [
        {
          "Name": "Andil",
          "Location": "Tel Vos, Services Tower"
        },
        {
          "Name": "Chaplain Ogrul",
          "Location": "Gnisis, Fort Darius"
        },
        {
          "Name": "Danoso Andrano",
          "Location": "Ald'ruhn, Temple"
        },
        {
          "Name": "Dralval Andrano",
          "Location": "Balmora, Temple"
        },
        {
          "Name": "Felara Andrethi",
          "Location": "Tel Aruhn, Tower Living Quarters"
        },
        {
          "Name": "J'Rasha",
          "Location": "Vivec, Foreign Quarter, J'Rasha: Healer"
        },
        {
          "Name": "Milar Maryon",
          "Location": "Tel Vos, Services Tower"
        },
        {
          "Name": "Scelian Plebo",
          "Location": "Wolverine Hall, Imperial Shrine"
        },
        {
          "Name": "Ygfa",
          "Location": "Pelagiad, Fort Pelagiad"
        }
      ]
    },
    {
      "Name": "Meadow Rye",
      "Properties": [
        "Fortify Personality",
        "Damage Fatigue",
        "Restore Personality",
        "Drain Personality"
      ]
    },
    {
      "Name": "Medium Corprusmeat Hunk",
      "Properties": [
        "Drain Endurance",
        "Drain Fatigue",
        "Drain Luck"
      ]
    },
    {
      "Name": "Medium Wrapped Corprusmeat",
      "Properties": [
        "Drain Endurance",
        "Drain Fatigue",
        "Drain Luck"
      ]
    },
    {
      "Name": "Meteor Slime",
      "Properties": [
        "Fortify Strength",
        "Cure Paralyzation",
        "Burden",
        "Restore Strength"
      ]
    },
    {
      "Name": "Moon Sugar",
      "Properties": [
        "Fortify Personality",
        "Detect Key",
        "Drain Alteration",
        "Drain Intelligence"
      ]
    },
    {
      "Name": "Muck",
      "Properties": [
        "Drain Health",
        "Detect Enchantment",
        "Drain Magicka",
        "Cure Blight Disease"
      ],
      "Vendors": [
        {
          "Name": "Andilu Drothan",
          "Location": "Vivec Foreign Quarter, Andilu Drothan: Alchemist"
        },
        {
          "Name": "Anis Seloth",
          "Location": "Sadrith Mora, Anis Seloth: Alchemist"
        },
        {
          "Name": "Brarayni Sarys",
          "Location": "Tel Aruhn, Tower Entry"
        },
        {
          "Name": "Dulian",
          "Location": "Buckmoth Legion Fort, Interior"
        },
        {
          "Name": "Llathyno Hlaalu",
          "Location": "Balmora, Temple"
        },
        {
          "Name": "Nalcarya of White Haven",
          "Location": "Balmora, Nalcarya of White Haven: Fine Alchemist"
        },
        {
          "Name": "Tivam Sadri",
          "Location": "Holamayan Monastery"
        }
      ]
    },
    {
      "Name": "Muffin",
      "Properties": [
        "Restore Endurance"
      ]
    },
    {
      "Name": "Netch Leather",
      "Properties": [
        "Fortify Attack",
        "Fortify Health",
        "Drain Magicka",
        "Cure Common Disease"
      ],
      "Vendors": [
        {
          "Name": "Arnand Liric",
          "Location": "Buckmoth Legion Fort, Interior"
        },
        {
          "Name": "Aunius Autrus",
          "Location": "Wolverine Hall, Imperial Shrine"
        },
        {
          "Name": "Eldrilu Dalen",
          "Location": "Vos, Vos Chapel"
        },
        {
          "Name": "Mehra Drora",
          "Location": "Gnisis, Temple"
        },
        {
          "Name": "Telis Salvani",
          "Location": "Balmora, Temple"
        },
        {
          "Name": "Threvul Serethi",
          "Location": "Sadrith Mora, Thervul Serethi: Healer"
        }
      ]
    },
    {
      "Name": "Nirthfly Stalks",
      "Properties": [
        "Damage Fatigue",
        "Fortify Personality",
        "Restore Personality",
        "Drain Personality"
      ],
      "Vendors": [
        {
          "Name": "Galsa Andrano",
          "Location": "MournholdTemple: Infirmary"
        }
      ]
    },
    {
      "Name": "Noble Sedge Flowers",
      "Properties": [
        "Damage Fatigue",
        "Resist Shock",
        "Paralyze",
        "Fire Shield"
      ]
    },
    {
      "Name": "Pearl",
      "Properties": [
        "Dispel",
        "Detect Key",
        "Vampirism",
        "Reflect"
      ],
      "Vendors": [
        {
          "Name": "Anis Seloth",
          "Location": "Sadrith Mora, Anis Seloth: Alchemist"
        },
        {
          "Name": "Craetia Jullalian",
          "Location": "Vivec Foreign Quarter, Guild of Mages"
        },
        {
          "Name": "Danoso Andrano",
          "Location": "Ald'ruhn, Temple"
        },
        {
          "Name": "Garas Seloth",
          "Location": "Vivec, Telvanni Alchemist"
        },
        {
          "Name": "Gils Drelas",
          "Location": "Tel Branora, Upper Tower: Therana's Chamber"
        },
        {
          "Name": "Jolda",
          "Location": "Tel Mora, Jolda: Apothecary"
        },
        {
          "Name": "Nalcarya of White Haven",
          "Location": "Balmora, Nalcarya of White Haven: Fine Alchemist"
        },
        {
          "Name": "Peragon",
          "Location": "Moonmoth Legion Fort, Interior"
        }
      ]
    },
    {
      "Name": "Pinetear",
      "Properties": [
        "Fortify Luck",
        "Restore Fatigue",
        "Dispel",
        "Drain Alteration"
      ]
    },
    {
      "Name": "Poison",
      "Properties": [
        "Weakness to Fire",
        "Damage Fatigue",
        "Cure Poison",
        "Paralyze"
      ]
    },
    {
      "Name": "Racer Plumes",
      "Properties": [
        "Drain Strength",
        "Invisibility"
      ],
      "Vendors": [
        {
          "Name": "Brarayni Sarys",
          "Location": "Tel Aruhn, Tower Entry"
        },
        {
          "Name": "Cienne Sintieve",
          "Location": "Ald'ruhn, Cienne Sintieve: Alchemist"
        },
        {
          "Name": "Craetia Jullalian",
          "Location": "Vivec Foreign Quarter, Guild of Mages"
        },
        {
          "Name": "Daynali Dren",
          "Location": "Tel Mora, Lower Tower"
        },
        {
          "Name": "Garas Seloth",
          "Location": "Vivec, Telvanni Alchemist"
        },
        {
          "Name": "Nalcarya of White Haven",
          "Location": "Balmora, Nalcarya of White Haven: Fine Alchemist"
        },
        {
          "Name": "Tusamircil",
          "Location": "Wolverine Hall, Mages Guild"
        }
      ]
    },
    {
      "Name": "Rat Meat",
      "Properties": [
        "Drain Luck",
        "Night Eye",
        "Cure Paralyzation",
        "Resist Paralysis"
      ],
      "Vendors": [
        {
          "Name": "Chaplain Ogrul",
          "Location": "Gnisis, Fort Darius"
        },
        {
          "Name": "Cocistian Quaspus",
          "Location": "Buckmoth Legion Fort"
        },
        {
          "Name": "Felara Andrethi",
          "Location": "Tel Aruhn, Tower Living Quarters"
        },
        {
          "Name": "Folvys Andalor",
          "Location": "Ald'ruhn Temple"
        },
        {
          "Name": "Milar Maryon",
          "Location": "Tel Vos, Services Tower"
        },
        {
          "Name": "Scelian Plebo",
          "Location": "Wolverine Hall, Imperial Shrine"
        },
        {
          "Name": "Telis Salvani",
          "Location": "Balmora, Temple"
        },
        {
          "Name": "Vaval Selas",
          "Location": "Vivec, St. Olms Temple"
        },
        {
          "Name": "Zanmulk Sammalamus",
          "Location": "Gnisis, Temple"
        }
      ]
    },
    {
      "Name": "Raw Ebony",
      "Properties": [
        "Dispel",
        "Cure Paralyzation",
        "Frost Damage",
        "Restore Personality"
      ]
    },
    {
      "Name": "Raw Glass",
      "Properties": [
        "Drain Health",
        "Drain Speed",
        "Drain Personality",
        "Feather"
      ]
    },
    {
      "Name": "Raw Stahlrim",
      "Properties": [
        "Resist Fire",
        "Fortify Willpower",
        "Night Eye",
        "Restore Fatigue"
      ]
    },
    {
      "Name": "Red Lichen",
      "Properties": [
        "Drain Personality",
        "Levitate",
        "Cure Blight Disease",
        "Drain Luck"
      ],
      "Vendors": [
        {
          "Name": "Aurane Frernis",
          "Location": "Vivec, Foreign Quarter, Aurane Frernis: Apothecary"
        },
        {
          "Name": "Dralval Andrano",
          "Location": "Balmora, Temple"
        },
        {
          "Name": "Irna Maryon",
          "Location": "Tel Aruhn, Tower Entry"
        },
        {
          "Name": "Lloros Sarano",
          "Location": "Ald'ruhn, Temple"
        },
        {
          "Name": "Pierlette Rostorard",
          "Location": "Sadrith Mora, Pierlette Rostorard: Apothecary"
        }
      ]
    },
    {
      "Name": "Resin",
      "Properties": [
        "Restore Fatigue",
        "Restore Personality",
        "Blind",
        "Reflect"
      ],
      "Vendors": [
        {
          "Name": "Aurane Frernis",
          "Location": "Vivec, Foreign Quarter, Aurane Frernis: Apothecary"
        },
        {
          "Name": "Bildren Areleth",
          "Location": "Tel Aruhn, Bildren Areleth: Apothecary"
        },
        {
          "Name": "Dulian",
          "Location": "Buckmoth Legion Fort, Interior"
        },
        {
          "Name": "Guls Llervu",
          "Location": "Ald'ruhn, Guls Llervu's House"
        },
        {
          "Name": "Jolda",
          "Location": "Tel Mora, Jolda: Apothecary"
        },
        {
          "Name": "Llathyno Hlaalu",
          "Location": "Balmora, Temple"
        },
        {
          "Name": "Pierlette Rostorard",
          "Location": "Sadrith Mora, Pierlette Rostorard: Apothecary"
        }
      ]
    },
    {
      "Name": "Ripened Belladonna Berries",
      "Properties": [
        "Resist Frost",
        "Restore Luck",
        "Fortify Luck",
        "Drain Luck"
      ]
    },
    {
      "Name": "Roobrush",
      "Properties": [
        "Drain Strength",
        "Fire Shield",
        "Drain Fatigue",
        "Cure Paralyzation"
      ],
      "Vendors": [
        {
          "Name": "Danoso Andrano",
          "Location": "Ald'ruhn, Temple"
        },
        {
          "Name": "Irna Maryon",
          "Location": "Tel Aruhn, Tower Entry"
        },
        {
          "Name": "Pierlette Rostorard",
          "Location": "Sadrith Mora, Pierlette Rostorard: Apothecary"
        },
        {
          "Name": "Relms Gilvilo",
          "Location": "Vivec, Redoran Temple Shrine"
        },
        {
          "Name": "Somutis Vunnis",
          "Location": "Moonmoth Legion Fort, Interior"
        }
      ]
    },
    {
      "Name": "Ruby",
      "Properties": [
        "Drain Fatigue",
        "Drain Willpower",
        "Restore Health",
        "Dispel"
      ],
      "Vendors": [
        {
          "Name": "Anis Seloth",
          "Location": "Sadrith Mora, Anis Seloth: Alchemist"
        },
        {
          "Name": "Craetia Jullalian",
          "Location": "Vivec Foreign Quarter, Guild of Mages"
        },
        {
          "Name": "Daynali Dren",
          "Location": "Tel Mora, Lower Tower"
        },
        {
          "Name": "Gils Drelas",
          "Location": "Tel Branora, Upper Tower: Therana's Chamber"
        },
        {
          "Name": "Nalcarya of White Haven",
          "Location": "Balmora, Nalcarya of White Haven: Fine Alchemist"
        }
      ]
    },
    {
      "Name": "Saltrice",
      "Properties": [
        "Restore Endurance",
        "Fortify Luck",
        "Drain Speed",
        "Restore Fatigue"
      ],
      "Vendors": [
        {
          "Name": "Chaplain Ogrul",
          "Location": "Gnisis, Fort Darius"
        },
        {
          "Name": "Eldrilu Dalen",
          "Location": "Vos, Vos Chapel"
        },
        {
          "Name": "Felara Andrethi",
          "Location": "Tel Aruhn, Tower Living Quarters"
        },
        {
          "Name": "Guls Llervu",
          "Location": "Ald'ruhn, Guls Llervu's House"
        },
        {
          "Name": "J'Rasha",
          "Location": "Vivec, Foreign Quarter, J'Rasha: Healer"
        },
        {
          "Name": "Llarara Omayn",
          "Location": "Balmora, Temple"
        },
        {
          "Name": "Scelian Plebo",
          "Location": "Wolverine Hall, Imperial Shrine"
        },
        {
          "Name": "Sedris Omalen",
          "Location": "Maar Gan, Outpost"
        },
        {
          "Name": "Tivam Sadri",
          "Location": "Holamayan Monastery"
        },
        {
          "Name": "Vaval Selas",
          "Location": "Vivec, St. Olms Temple"
        }
      ]
    },
    {
      "Name": "Scales",
      "Properties": [
        "Drain Magicka",
        "Water Breathing",
        "Restore Agility",
        "Spell Absorption"
      ],
      "Vendors": [
        {
          "Name": "Ajira",
          "Location": "Balmora, Guild of Mages"
        },
        {
          "Name": "Anis Seloth",
          "Location": "Sadrith Mora, Anis Seloth: Alchemist"
        },
        {
          "Name": "Daynali Dren",
          "Location": "Tel Mora, Lower Tower"
        },
        {
          "Name": "Ganalyn Saram",
          "Location": "Vivec, Hlaalu Alchemist"
        },
        {
          "Name": "Gils Drelas",
          "Location": "Tel Branora, Upper Tower: Therana's Chamber"
        },
        {
          "Name": "Nalcarya of White Haven",
          "Location": "Balmora, Nalcarya of White Haven: Fine Alchemist"
        }
      ]
    },
    {
      "Name": "Scamp Skin",
      "Properties": [
        "Drain Luck",
        "Cure Common Disease",
        "Restore Magicka",
        "Restore Speed"
      ],
      "Vendors": [
        {
          "Name": "Arnand Liric",
          "Location": "Buckmoth Legion Fort, Interior"
        },
        {
          "Name": "Aunius Autrus",
          "Location": "Wolverine Hall, Imperial Shrine"
        },
        {
          "Name": "Felara Andrethi",
          "Location": "Tel Aruhn, Tower Living Quarters"
        },
        {
          "Name": "Folvys Andalor",
          "Location": "Ald'ruhn Temple"
        },
        {
          "Name": "J'Rasha",
          "Location": "Vivec, Foreign Quarter, J'Rasha: Healer"
        }
      ]
    },
    {
      "Name": "Scathecraw",
      "Properties": [
        "Drain Speed",
        "Cure Paralyzation",
        "Drain Fatigue",
        "Restore Strength"
      ],
      "Vendors": [
        {
          "Name": "Andil",
          "Location": "Tel Vos, Services Tower"
        },
        {
          "Name": "Cocistian Quaspus",
          "Location": "Buckmoth Legion Fort"
        },
        {
          "Name": "Dralval Andrano",
          "Location": "Balmora, Temple"
        },
        {
          "Name": "Galuro Belan",
          "Location": "Vivec, Telvanni Apothecary"
        },
        {
          "Name": "Guls Llervu",
          "Location": "Ald'ruhn, Guls Llervu's House"
        },
        {
          "Name": "Irna Maryon",
          "Location": "Tel Aruhn, Tower Entry"
        },
        {
          "Name": "Pierlette Rostorard",
          "Location": "Sadrith Mora, Pierlette Rostorard: Apothecary"
        }
      ]
    },
    {
      "Name": "Scrap Metal",
      "Properties": [
        "Drain Fatigue",
        "Light",
        "Resist Poison",
        "Restore Health"
      ],
      "Vendors": [
        {
          "Name": "Andilu Drothan",
          "Location": "Vivec Foreign Quarter, Andilu Drothan: Alchemist"
        },
        {
          "Name": "Anis Seloth",
          "Location": "Sadrith Mora, Anis Seloth: Alchemist"
        },
        {
          "Name": "Cienne Sintieve",
          "Location": "Ald'ruhn, Cienne Sintieve: Alchemist"
        },
        {
          "Name": "Daynali Dren",
          "Location": "Tel Mora, Lower Tower"
        },
        {
          "Name": "Gils Drelas",
          "Location": "Tel Branora, Upper Tower: Therana's Chamber"
        },
        {
          "Name": "Nalcarya of White Haven",
          "Location": "Balmora, Nalcarya of White Haven: Fine Alchemist"
        }
      ]
    },
    {
      "Name": "Scrib Cabbage",
      "Properties": [
        "Drain Health",
        "Damage Fatigue",
        "Resist Shock",
        "Fire Shield"
      ]
    },
    {
      "Name": "Scrib Jelly",
      "Properties": [
        "Fortify Strength",
        "Cure Paralyzation",
        "Burden",
        "Restore Strength"
      ],
      "Vendors": [
        {
          "Name": "Arnand Liric",
          "Location": "Buckmoth Legion Fort, Interior"
        },
        {
          "Name": "Eldrilu Dalen",
          "Location": "Vos, Vos Chapel"
        },
        {
          "Name": "Folvys Andalor",
          "Location": "Ald'ruhn Temple"
        },
        {
          "Name": "Llathyno Hlaalu",
          "Location": "Balmora, Temple"
        },
        {
          "Name": "Relms Gilvilo",
          "Location": "Vivec, Redoran Temple Shrine"
        },
        {
          "Name": "Threvul Serethi",
          "Location": "Sadrith Mora, Thervul Serethi: Healer"
        },
        {
          "Name": "Vaval Selas",
          "Location": "Vivec, St. Olms Temple"
        }
      ]
    },
    {
      "Name": "Scrib Jerky",
      "Properties": [
        "Restore Endurance",
        "Fortify Endurance",
        "Blind",
        "Spell Absorption"
      ],
      "Vendors": [
        {
          "Name": "Arrille",
          "Location": "Seyda Neen, Arrille's Tradehouse"
        },
        {
          "Name": "Aunius Autrus",
          "Location": "Wolverine Hall, Imperial Shrine"
        },
        {
          "Name": "Dulian",
          "Location": "Buckmoth Legion Fort, Interior"
        },
        {
          "Name": "Eldrilu Dalen",
          "Location": "Vos, Vos Chapel"
        },
        {
          "Name": "Folvys Andalor",
          "Location": "Ald'ruhn Temple"
        },
        {
          "Name": "Galsa Andrano",
          "Location": "MournholdTemple: Infirmary"
        },
        {
          "Name": "Llarara Omayn",
          "Location": "Balmora, Temple"
        },
        {
          "Name": "Tivam Sadri",
          "Location": "Holamayan Monastery"
        }
      ]
    },
    {
      "Name": "Scuttle",
      "Properties": [
        "Restore Endurance",
        "Fortify Endurance",
        "Drain Willpower",
        "Swift Swim"
      ],
      "Vendors": [
        {
          "Name": "Felara Andrethi",
          "Location": "Tel Aruhn, Tower Living Quarters"
        },
        {
          "Name": "Folvys Andalor",
          "Location": "Ald'ruhn Temple"
        },
        {
          "Name": "Guls Llervu",
          "Location": "Ald'ruhn, Guls Llervu's House"
        },
        {
          "Name": "J'Rasha",
          "Location": "Vivec, Foreign Quarter, J'Rasha: Healer"
        },
        {
          "Name": "Llathyno Hlaalu",
          "Location": "Balmora, Temple"
        },
        {
          "Name": "Threvul Serethi",
          "Location": "Sadrith Mora, Thervul Serethi: Healer"
        }
      ]
    },
    {
      "Name": "Shalk Resin",
      "Properties": [
        "Drain Endurance",
        "Fortify Fatigue",
        "Drain Magicka",
        "Fortify Personality"
      ],
      "Vendors": [
        {
          "Name": "Andil",
          "Location": "Tel Vos, Services Tower"
        },
        {
          "Name": "Arrille",
          "Location": "Seyda Neen, Arrille's Tradehouse"
        },
        {
          "Name": "Aurane Frernis",
          "Location": "Vivec, Foreign Quarter, Aurane Frernis: Apothecary"
        },
        {
          "Name": "Llarara Omayn",
          "Location": "Balmora, Temple"
        },
        {
          "Name": "Lloros Sarano",
          "Location": "Ald'ruhn, Temple"
        },
        {
          "Name": "Pierlette Rostorard",
          "Location": "Sadrith Mora, Pierlette Rostorard: Apothecary"
        },
        {
          "Name": "Salen Ravel",
          "Location": "Maar Gan, Shrine"
        }
      ]
    },
    {
      "Name": "Sload Soap",
      "Properties": [
        "Drain Magicka",
        "Fire Shield",
        "Feather",
        "Resist Shock"
      ],
      "Vendors": [
        {
          "Name": "Andilu Drothan",
          "Location": "Vivec Foreign Quarter, Andilu Drothan: Alchemist"
        },
        {
          "Name": "Anis Seloth",
          "Location": "Sadrith Mora, Anis Seloth: Alchemist"
        },
        {
          "Name": "Brarayni Sarys",
          "Location": "Tel Aruhn, Tower Entry"
        },
        {
          "Name": "Nalcarya of White Haven",
          "Location": "Balmora, Nalcarya of White Haven: Fine Alchemist"
        },
        {
          "Name": "Peragon",
          "Location": "Moonmoth Legion Fort, Interior"
        }
      ]
    },
    {
      "Name": "Small Corprusmeat Hunk",
      "Properties": [
        "Drain Endurance",
        "Drain Luck"
      ]
    },
    {
      "Name": "Small Kwama Egg",
      "Properties": [
        "Restore Endurance"
      ],
      "Vendors": [
        {
          "Name": "Ajira",
          "Location": "Balmora, Guild of Mages"
        },
        {
          "Name": "Cienne Sintieve",
          "Location": "Ald'ruhn, Cienne Sintieve: Alchemist"
        },
        {
          "Name": "Felara Andrethi",
          "Location": "Tel Aruhn, Tower Living Quarters"
        },
        {
          "Name": "J'Rasha",
          "Location": "Vivec, Foreign Quarter, J'Rasha: Healer"
        },
        {
          "Name": "Threvul Serethi",
          "Location": "Sadrith Mora, Thervul Serethi: Healer"
        },
        {
          "Name": "Tusamircil",
          "Location": "Wolverine Hall, Mages Guild"
        },
        {
          "Name": "Ulumpha gra-Sharob",
          "Location": "Gnisis, Fort Darius"
        },
        {
          "Name": "Vaval Selas",
          "Location": "Vivec, St. Olms Temple"
        },
        {
          "Name": "Zanmulk Sammalamus",
          "Location": "Gnisis, Temple"
        }
      ]
    },
    {
      "Name": "Small Wrapped Corprusmeat",
      "Properties": [
        "Drain Endurance",
        "Drain Fatigue",
        "Drain Luck"
      ]
    },
    {
      "Name": "Snow Bear Pelt",
      "Properties": [
        "Drain Endurance",
        "Fortify Personality",
        "Reflect",
        "Lightning Shield"
      ]
    },
    {
      "Name": "Snow Wolf Pelt",
      "Properties": [
        "Drain Endurance",
        "Fortify Personality",
        "Reflect",
        "Lightning Shield"
      ]
    },
    {
      "Name": "Spore Pod",
      "Properties": [
        "Drain Speed",
        "Drain Endurance",
        "Detect Enchantment",
        "Night Eye"
      ],
      "Vendors": [
        {
          "Name": "Brarayni Sarys",
          "Location": "Tel Aruhn, Tower Entry"
        },
        {
          "Name": "Cienne Sintieve",
          "Location": "Ald'ruhn, Cienne Sintieve: Alchemist"
        },
        {
          "Name": "Danoso Andrano",
          "Location": "Ald'ruhn, Temple"
        },
        {
          "Name": "Ernand Thierry",
          "Location": "Caldera, Guild of Mages"
        },
        {
          "Name": "Ganalyn Saram",
          "Location": "Vivec, Hlaalu Alchemist"
        },
        {
          "Name": "Peragon",
          "Location": "Moonmoth Legion Fort, Interior"
        },
        {
          "Name": "Tusamircil",
          "Location": "Wolverine Hall, Mages Guild"
        }
      ]
    },
    {
      "Name": "Stoneflower Petals",
      "Properties": [
        "Restore Speed",
        "Fortify Luck",
        "Drain Intelligence",
        "Fortify Maximum Magicka"
      ],
      "Vendors": [
        {
          "Name": "Andil",
          "Location": "Tel Vos, Services Tower"
        },
        {
          "Name": "Bildren Areleth",
          "Location": "Tel Aruhn, Bildren Areleth: Apothecary"
        },
        {
          "Name": "Cocistian Quaspus",
          "Location": "Buckmoth Legion Fort"
        },
        {
          "Name": "Galuro Belan",
          "Location": "Vivec, Telvanni Apothecary"
        },
        {
          "Name": "Llathyno Hlaalu",
          "Location": "Balmora, Temple"
        },
        {
          "Name": "Mehra Drora",
          "Location": "Gnisis, Temple"
        },
        {
          "Name": "Pierlette Rostorard",
          "Location": "Sadrith Mora, Pierlette Rostorard: Apothecary"
        }
      ]
    },
    {
      "Name": "Sweetpulp",
      "Properties": [
        "Night Eye",
        "Invisibility",
        "Resist Magicka",
        "Restore Fatigue"
      ],
      "Vendors": [
        {
          "Name": "Galsa Andrano",
          "Location": "MournholdTemple: Infirmary"
        }
      ]
    },
    {
      "Name": "Timsa-Come-By flowers",
      "Properties": [
        "Detect Key",
        "Resist Magicka",
        "Drain Luck",
        "Restore Agility"
      ]
    },
    {
      "Name": "Trama Root",
      "Properties": [
        "Restore Strength",
        "Invisibility",
        "Drain Luck",
        "Drain Personality"
      ],
      "Vendors": [
        {
          "Name": "Andilu Drothan",
          "Location": "Vivec Foreign Quarter, Andilu Drothan: Alchemist"
        },
        {
          "Name": "Anis Seloth",
          "Location": "Sadrith Mora, Anis Seloth: Alchemist"
        },
        {
          "Name": "Daynali Dren",
          "Location": "Tel Mora, Lower Tower"
        },
        {
          "Name": "Dulian",
          "Location": "Buckmoth Legion Fort, Interior"
        },
        {
          "Name": "Gils Drelas",
          "Location": "Tel Branora, Upper Tower: Therana's Chamber"
        },
        {
          "Name": "Llathyno Hlaalu",
          "Location": "Balmora, Temple"
        },
        {
          "Name": "Nalcarya of White Haven",
          "Location": "Balmora, Nalcarya of White Haven: Fine Alchemist"
        },
        {
          "Name": "Tusamircil",
          "Location": "Wolverine Hall, Mages Guild"
        }
      ]
    },
    {
      "Name": "Treated Bittergreen Petals",
      "Properties": [
        "Restore Health",
        "Drain Luck",
        "Drain Alteration",
        "Frost Shield"
      ]
    },
    {
      "Name": "Unripened Belladonna Berries",
      "Properties": [
        "Resist Frost",
        "Restore Luck",
        "Fortify Luck",
        "Drain Luck"
      ]
    },
    {
      "Name": "Vampire Dust",
      "Properties": [
        "Fortify Fatigue",
        "Fortify Speed",
        "Restore Willpower",
        "Telekinesis"
      ],
      "Vendors": [
        {
          "Name": "Anarenen",
          "Location": "Ald'ruhn, Guild of Mages"
        },
        {
          "Name": "Anis Seloth",
          "Location": "Sadrith Mora, Anis Seloth: Alchemist"
        },
        {
          "Name": "Brarayni Sarys",
          "Location": "Tel Aruhn, Tower Entry"
        },
        {
          "Name": "Nalcarya of White Haven",
          "Location": "Balmora, Nalcarya of White Haven: Fine Alchemist"
        }
      ]
    },
    {
      "Name": "Violet Coprinus",
      "Properties": [
        "Water Breathing",
        "Drain Endurance",
        "Paralyze"
      ],
      "Vendors": [
        {
          "Name": "Anis Seloth",
          "Location": "Sadrith Mora, Anis Seloth: Alchemist"
        },
        {
          "Name": "Cienne Sintieve",
          "Location": "Ald'ruhn, Cienne Sintieve: Alchemist"
        },
        {
          "Name": "Ernand Thierry",
          "Location": "Caldera, Guild of Mages"
        },
        {
          "Name": "Jolda",
          "Location": "Tel Mora, Jolda: Apothecary"
        }
      ]
    },
    {
      "Name": "Void Salts",
      "Properties": [
        "Restore Luck",
        "Restore Willpower",
        "Night Eye",
        "Drain Alteration"
      ],
      "Vendors": [
        {
          "Name": "Cienne Sintieve",
          "Location": "Ald'ruhn, Cienne Sintieve: Alchemist"
        },
        {
          "Name": "Garas Seloth",
          "Location": "Vivec, Telvanni Alchemist"
        },
        {
          "Name": "Gils Drelas",
          "Location": "Tel Branora, Upper Tower: Therana's Chamber"
        },
        {
          "Name": "Jolda",
          "Location": "Tel Mora, Jolda: Apothecary"
        },
        {
          "Name": "Nalcarya of White Haven",
          "Location": "Balmora, Nalcarya of White Haven: Fine Alchemist"
        }
      ]
    },
    {
      "Name": "Wickwheat",
      "Properties": [
        "Restore Fatigue",
        "Fortify Strength",
        "Night Eye",
        "Damage Health"
      ],
      "Vendors": [
        {
          "Name": "Anis Seloth",
          "Location": "Sadrith Mora, Anis Seloth: Alchemist"
        },
        {
          "Name": "Chaplain Ogrul",
          "Location": "Gnisis, Fort Darius"
        },
        {
          "Name": "Danoso Andrano",
          "Location": "Ald'ruhn, Temple"
        },
        {
          "Name": "Dralval Andrano",
          "Location": "Balmora, Temple"
        },
        {
          "Name": "Garas Seloth",
          "Location": "Vivec, Telvanni Alchemist"
        },
        {
          "Name": "Irna Maryon",
          "Location": "Tel Aruhn, Tower Entry"
        },
        {
          "Name": "Llarara Omayn",
          "Location": "Balmora, Temple"
        },
        {
          "Name": "Milar Maryon",
          "Location": "Tel Vos, Services Tower"
        },
        {
          "Name": "Threvul Serethi",
          "Location": "Sadrith Mora, Thervul Serethi: Healer"
        }
      ]
    },
    {
      "Name": "Willow Anther",
      "Properties": [
        "Drain Magicka",
        "Frost Damage",
        "Cure Blight Disease",
        "Cure Common Disease"
      ],
      "Vendors": [
        {
          "Name": "Ajira",
          "Location": "Balmora, Guild of Mages"
        },
        {
          "Name": "Anis Seloth",
          "Location": "Sadrith Mora, Anis Seloth: Alchemist"
        },
        {
          "Name": "Daynali Dren",
          "Location": "Tel Mora, Lower Tower"
        },
        {
          "Name": "Dulian",
          "Location": "Buckmoth Legion Fort, Interior"
        },
        {
          "Name": "Ganalyn Saram",
          "Location": "Vivec, Hlaalu Alchemist"
        },
        {
          "Name": "Gils Drelas",
          "Location": "Tel Branora, Upper Tower: Therana's Chamber"
        },
        {
          "Name": "Llathyno Hlaalu",
          "Location": "Balmora, Temple"
        }
      ]
    },
    {
      "Name": "Wolf Pelt",
      "Properties": [
        "Drain Endurance",
        "Fortify Personality",
        "Reflect",
        "Lightning Shield"
      ]
    },
    {
      "Name": "Wolfsbane Petals",
      "Properties": [
        "Restore Health",
        "Frost Shield",
        "Drain Alteration",
        "Drain Luck"
      ]
    }
  ],
  "Effects": [
    {
      "Name": "Blind",
      "Properties": [
        "Bristleback Leather",
        "Durzog Meat"
      ]
    },
    {
      "Name": "Burden",
      "Properties": [
        "Adamantium Ore",
        "Gold Kanet",
        "Resin",
        "Scrib Jerky"
      ]
    },
    {
      "Name": "Cure Blight Disease",
      "Properties": [
        "Ash Salts",
        "Meteor Slime",
        "Scrib Jelly"
      ]
    },
    {
      "Name": "Cure Common Disease",
      "Properties": [
        "Chokeweed",
        "Daedra Skin",
        "Gravedust",
        "Green Lichen",
        "Muck",
        "Red Lichen",
        "Willow Anther"
      ]
    },
    {
      "Name": "Cure Paralyzation",
      "Properties": [
        "Corkbulb Root",
        "Netch Leather",
        "Scamp Skin",
        "Willow Anther"
      ]
    },
    {
      "Name": "Cure Poison",
      "Properties": [
        "Black Lichen",
        "Ghoul Heart",
        "Meteor Slime",
        "Rat Meat",
        "Raw Ebony",
        "Roobrush",
        "Scathecraw",
        "Scrib Jelly"
      ]
    },
    {
      "Name": "Damage Fatigue",
      "Properties": [
        "Poison"
      ]
    },
    {
      "Name": "Damage Health",
      "Properties": [
        "Meadow Rye",
        "Nirthfly Stalks",
        "Noble Sedge Flowers",
        "Poison",
        "Scrib Cabbage"
      ]
    },
    {
      "Name": "Damage Intelligence",
      "Properties": [
        "Wickwheat"
      ]
    },
    {
      "Name": "Damage Magicka",
      "Properties": [
        "Durzog Meat"
      ]
    },
    {
      "Name": "Detect Animal",
      "Properties": [
        "Alit Hide",
        "Ampoule Pod",
        "Bloat",
        "Ectoplasm",
        "Horker Tusk"
      ]
    },
    {
      "Name": "Detect Enchantment",
      "Properties": [
        "Hound Meat",
        "Hypha Facia",
        "Lloramor Spines",
        "Marshmerrow"
      ]
    },
    {
      "Name": "Detect Key",
      "Properties": [
        "Ash Yam",
        "Diamond",
        "Muck",
        "Spore Pod"
      ]
    },
    {
      "Name": "Dispel",
      "Properties": [
        "Bungler's Bane",
        "Moon Sugar",
        "Pearl",
        "Timsa-Come-By flowers"
      ]
    },
    {
      "Name": "Drain Agility",
      "Properties": [
        "Ash Salts",
        "Black Anther",
        "Daedra's Heart",
        "Diamond",
        "Emerald",
        "Heart of the Udyrfrykte",
        "Hypha Facia",
        "Pearl",
        "Pinetear",
        "Raw Ebony",
        "Ruby"
      ]
    },
    {
      "Name": "Drain Alteration",
      "Properties": [
        "Horker Tusk"
      ]
    },
    {
      "Name": "Drain Endurance",
      "Properties": [
        "Bittergreen Petals",
        "Black Anther",
        "Bungler's Bane",
        "Emerald",
        "Moon Sugar",
        "Pinetear",
        "Treated Bittergreen Petals",
        "Void Salts",
        "Wolfsbane Petals"
      ]
    },
    {
      "Name": "Drain Fatigue",
      "Properties": [
        "Bear Pelt",
        "Bonemeal",
        "Comberry",
        "Corpus Weepings",
        "Guar Hide",
        "Hypha Facia",
        "Kagouti Hide",
        "Kwama Cuttle",
        "Large Corprusmeat Hunk",
        "Large Wrapped Corprusmeat",
        "Luminous Russula",
        "Marshmerrow",
        "Medium Corprusmeat Hunk",
        "Medium Wrapped Corprusmeat",
        "Shalk Resin",
        "Small Corprusmeat Hunk",
        "Small Wrapped Corprusmeat",
        "Snow Bear Pelt",
        "Snow Wolf Pelt",
        "Spore Pod",
        "Violet Coprinus",
        "Wolf Pelt"
      ]
    },
    {
      "Name": "Drain Health",
      "Properties": [
        "Coda Flower",
        "Ectoplasm",
        "Fire Petal",
        "Fire Salts",
        "Gold Kanet",
        "Gravetar",
        "Green Lichen",
        "Horn Lily Bulb",
        "Large Corprusmeat Hunk",
        "Large Wrapped Corprusmeat",
        "Medium Corprusmeat Hunk",
        "Medium Wrapped Corprusmeat",
        "Roobrush",
        "Ruby",
        "Scathecraw",
        "Scrap Metal",
        "Small Wrapped Corprusmeat"
      ]
    },
    {
      "Name": "Drain Intelligence",
      "Properties": [
        "Alit Hide",
        "Coda Flower",
        "Gravedust",
        "Human flesh",
        "Muck",
        "Raw Glass",
        "Scrib Cabbage"
      ]
    },
    {
      "Name": "Drain Luck",
      "Properties": [
        "Chokeweed",
        "Dreugh Wax",
        "Gold Kanet",
        "Gravetar",
        "Hypha Facia",
        "Moon Sugar",
        "Stoneflower Petals"
      ]
    },
    {
      "Name": "Drain Magicka",
      "Properties": [
        "Bittergreen Petals",
        "Bloat",
        "Flaming Eye of the Lightkeeper",
        "Golden Sedge Flowers",
        "Grahl Eyeball",
        "Gravedust",
        "Kresh Fiber",
        "Large Corprusmeat Hunk",
        "Large Wrapped Corprusmeat",
        "Medium Corprusmeat Hunk",
        "Medium Wrapped Corprusmeat",
        "Rat Meat",
        "Red Lichen",
        "Ripened Belladonna Berries",
        "Scamp Skin",
        "Small Corprusmeat Hunk",
        "Small Wrapped Corprusmeat",
        "Timsa-Come-By flowers",
        "Trama Root",
        "Treated Bittergreen Petals",
        "Unripened Belladonna Berries",
        "Wolfsbane Petals"
      ]
    },
    {
      "Name": "Drain Personality",
      "Properties": [
        "Bonemeal",
        "Coda Flower",
        "Heather",
        "Human flesh",
        "Muck",
        "Netch Leather",
        "Scales",
        "Shalk Resin",
        "Sload Soap",
        "Willow Anther"
      ]
    },
    {
      "Name": "Drain Speed",
      "Properties": [
        "Black Lichen",
        "Bungler's Bane",
        "Frost Salts",
        "Heather",
        "Kresh Fiber",
        "Meadow Rye",
        "Nirthfly Stalks",
        "Raw Glass",
        "Red Lichen",
        "Trama Root"
      ]
    },
    {
      "Name": "Drain Strength",
      "Properties": [
        "Black Lichen",
        "Bungler's Bane",
        "Ectoplasm",
        "Green Lichen",
        "Heartwood",
        "Raw Glass",
        "Saltrice",
        "Scathecraw",
        "Spore Pod"
      ]
    },
    {
      "Name": "Drain Willpower",
      "Properties": [
        "Ampoule Pod",
        "Chokeweed",
        "Corpus Weepings",
        "Dreugh Wax",
        "Marshmerrow",
        "Racer Plumes",
        "Roobrush"
      ]
    },
    {
      "Name": "Feather",
      "Properties": [
        "Heather",
        "Ruby",
        "Scuttle"
      ]
    },
    {
      "Name": "Fire Shield",
      "Properties": [
        "Comberry",
        "Fire Salts",
        "Raw Glass",
        "Sload Soap"
      ]
    },
    {
      "Name": "Fortify Agility",
      "Properties": [
        "Durzog Meat",
        "Ectoplasm",
        "Fire Salts",
        "Heartwood",
        "Noble Sedge Flowers",
        "Roobrush",
        "Scrib Cabbage",
        "Sload Soap"
      ]
    },
    {
      "Name": "Fortify Attack",
      "Properties": [
        "Ghoul Heart",
        "Golden Sedge Flowers"
      ]
    },
    {
      "Name": "Fortify Endurance",
      "Properties": [
        "Daedra's Heart",
        "Guar Hide",
        "Heart of the Udyrfrykte",
        "Netch Leather"
      ]
    },
    {
      "Name": "Fortify Fatigue",
      "Properties": [
        "Gravetar",
        "Hound Meat",
        "Scrib Jerky",
        "Scuttle"
      ]
    },
    {
      "Name": "Fortify Health",
      "Properties": [
        "Human flesh",
        "Large Kwama Egg",
        "Shalk Resin",
        "Vampire Dust"
      ]
    },
    {
      "Name": "Fortify Intelligence",
      "Properties": [
        "Ash Yam",
        "Bloat",
        "Horker Tusk",
        "Netch Leather"
      ]
    },
    {
      "Name": "Fortify Luck",
      "Properties": [
        "Corkbulb Root",
        "Corpus Weepings",
        "Guar Hide"
      ]
    },
    {
      "Name": "Fortify Magicka",
      "Properties": [
        "Emerald",
        "Grahl Eyeball",
        "Pinetear",
        "Ripened Belladonna Berries",
        "Saltrice",
        "Stoneflower Petals",
        "Unripened Belladonna Berries"
      ]
    },
    {
      "Name": "Fortify Maximum Magicka",
      "Properties": [
        "Horker Tusk"
      ]
    },
    {
      "Name": "Fortify Personality",
      "Properties": [
        "Green Lichen",
        "Kresh Fiber",
        "Stoneflower Petals"
      ]
    },
    {
      "Name": "Fortify Speed",
      "Properties": [
        "Kagouti Hide",
        "Meadow Rye",
        "Moon Sugar",
        "Nirthfly Stalks",
        "Shalk Resin",
        "Snow Bear Pelt",
        "Snow Wolf Pelt",
        "Wolf Pelt"
      ]
    },
    {
      "Name": "Fortify Strength",
      "Properties": [
        "Ash Yam",
        "Bear Pelt",
        "Daedra Skin",
        "Dreugh Wax",
        "Durzog Meat",
        "Flaming Eye of the Lightkeeper",
        "Golden Sedge Flowers",
        "Vampire Dust"
      ]
    },
    {
      "Name": "Fortify Willpower",
      "Properties": [
        "Bloat",
        "Meteor Slime",
        "Scrib Jelly",
        "Wickwheat"
      ]
    },
    {
      "Name": "Frost Damage",
      "Properties": [
        "Bristleback Leather",
        "Holly Berries",
        "Raw Stahlrim"
      ]
    },
    {
      "Name": "Frost Shield",
      "Properties": [
        "Frost Salts",
        "Holly Berries",
        "Large Kwama Egg",
        "Raw Ebony",
        "Willow Anther"
      ]
    },
    {
      "Name": "Invisibility",
      "Properties": [
        "Bittergreen Petals",
        "Diamond",
        "Lloramor Spines",
        "Treated Bittergreen Petals",
        "Wolfsbane Petals"
      ]
    },
    {
      "Name": "Levitate",
      "Properties": [
        "Coda Flower",
        "Racer Plumes",
        "Sweetpulp",
        "Trama Root"
      ]
    },
    {
      "Name": "Light",
      "Properties": [
        "Black Anther",
        "Red Lichen"
      ]
    },
    {
      "Name": "Lightning Shield",
      "Properties": [
        "Corkbulb Root",
        "Crab Meat",
        "Scrap Metal"
      ]
    },
    {
      "Name": "Night Eye",
      "Properties": [
        "Bear Pelt",
        "Daedra's Heart",
        "Flaming Eye of the Lightkeeper",
        "Grahl Eyeball",
        "Heart of the Udyrfrykte",
        "Kagouti Hide",
        "Snow Bear Pelt",
        "Snow Wolf Pelt",
        "Wolf Pelt"
      ]
    },
    {
      "Name": "Paralyze",
      "Properties": [
        "Ampoule Pod",
        "Daedra Skin",
        "Fire Petal",
        "Ghoul Heart",
        "Hack-Lo Leaf",
        "Large Kwama Egg",
        "Rat Meat",
        "Raw Stahlrim",
        "Spore Pod",
        "Sweetpulp",
        "Void Salts",
        "Wickwheat"
      ]
    },
    {
      "Name": "Poison",
      "Properties": [
        "Adamantium Ore",
        "Lloramor Spines",
        "Luminous Russula",
        "Noble Sedge Flowers",
        "Poison",
        "Violet Coprinus"
      ]
    },
    {
      "Name": "Recall",
      "Properties": [
        "Bristleback Leather"
      ]
    },
    {
      "Name": "Reflect",
      "Properties": [
        "Adamantium Ore",
        "Comberry",
        "Diamond",
        "Hound Meat"
      ]
    },
    {
      "Name": "Resist Common Disease",
      "Properties": [
        "Ash Yam",
        "Bear Pelt",
        "Kagouti Hide",
        "Pearl",
        "Resin",
        "Snow Bear Pelt",
        "Snow Wolf Pelt",
        "Wolf Pelt"
      ]
    },
    {
      "Name": "Resist Fire",
      "Properties": [
        "Black Anther",
        "Fire Petal",
        "Frost Salts"
      ]
    },
    {
      "Name": "Resist Frost",
      "Properties": [
        "Black Lichen",
        "Bristleback Leather",
        "Fire Salts",
        "Flaming Eye of the Lightkeeper",
        "Grahl Eyeball",
        "Gravetar",
        "Holly Berries",
        "Raw Stahlrim"
      ]
    },
    {
      "Name": "Resist Magicka",
      "Properties": [
        "Ash Salts",
        "Ripened Belladonna Berries",
        "Unripened Belladonna Berries"
      ]
    },
    {
      "Name": "Resist Paralysis",
      "Properties": [
        "Horn Lily Bulb",
        "Sweetpulp",
        "Timsa-Come-By flowers"
      ]
    },
    {
      "Name": "Resist Poison",
      "Properties": [
        "Alit Hide",
        "Kwama Cuttle",
        "Rat Meat"
      ]
    },
    {
      "Name": "Resist Shock",
      "Properties": [
        "Crab Meat",
        "Scrap Metal"
      ]
    },
    {
      "Name": "Restore Agility",
      "Properties": [
        "Bonemeal",
        "Noble Sedge Flowers",
        "Scrib Cabbage",
        "Sload Soap"
      ]
    },
    {
      "Name": "Restore Endurance",
      "Properties": [
        "Gravedust",
        "Horn Lily Bulb",
        "Scales",
        "Timsa-Come-By flowers"
      ]
    },
    {
      "Name": "Restore Fatigue",
      "Properties": [
        "Bread",
        "Chokeweed",
        "Crab Meat",
        "Hack-Lo Leaf",
        "Hound Meat",
        "Large Kwama Egg",
        "Muffin",
        "Saltrice",
        "Scrib Jerky",
        "Scuttle",
        "Small Kwama Egg"
      ]
    },
    {
      "Name": "Restore Health",
      "Properties": [
        "Corkbulb Root",
        "Corpus Weepings",
        "Emerald",
        "Marshmerrow",
        "Pinetear",
        "Raw Stahlrim",
        "Resin",
        "Saltrice",
        "Sweetpulp",
        "Wickwheat"
      ]
    },
    {
      "Name": "Restore Intelligence",
      "Properties": [
        "Bittergreen Petals",
        "Ruby",
        "Scrap Metal",
        "Treated Bittergreen Petals",
        "Wolfsbane Petals"
      ]
    },
    {
      "Name": "Restore Luck",
      "Properties": [
        "Crab Meat",
        "Hack-Lo Leaf",
        "Kresh Fiber"
      ]
    },
    {
      "Name": "Restore Magicka",
      "Properties": [
        "Adamantium Ore",
        "Comberry",
        "Daedra's Heart",
        "Frost Salts",
        "Heart of the Udyrfrykte",
        "Heartwood",
        "Ripened Belladonna Berries",
        "Unripened Belladonna Berries",
        "Void Salts"
      ]
    },
    {
      "Name": "Restore Personality",
      "Properties": [
        "Guar Hide",
        "Heather",
        "Scamp Skin"
      ]
    },
    {
      "Name": "Restore Speed",
      "Properties": [
        "Meadow Rye",
        "Nirthfly Stalks",
        "Raw Ebony",
        "Resin"
      ]
    },
    {
      "Name": "Restore Strength",
      "Properties": [
        "Dreugh Wax",
        "Gold Kanet",
        "Horn Lily Bulb",
        "Scamp Skin",
        "Stoneflower Petals"
      ]
    },
    {
      "Name": "Restore Willpower",
      "Properties": [
        "Meteor Slime",
        "Scathecraw",
        "Scrib Jelly",
        "Trama Root"
      ]
    },
    {
      "Name": "Spell Absorption",
      "Properties": [
        "Fire Petal",
        "Lloramor Spines",
        "Vampire Dust",
        "Void Salts"
      ]
    },
    {
      "Name": "Swift Swim",
      "Properties": [
        "Daedra Skin",
        "Golden Sedge Flowers",
        "Scales",
        "Scrib Jerky"
      ]
    },
    {
      "Name": "Telekinesis",
      "Properties": [
        "Alit Hide",
        "Bonemeal",
        "Scuttle"
      ]
    },
    {
      "Name": "Vampirism",
      "Properties": [
        "Vampire Dust"
      ]
    },
    {
      "Name": "Water Breathing",
      "Properties": [
        "Hack-Lo Leaf",
        "Kwama Cuttle",
        "Luminous Russula",
        "Pearl"
      ]
    },
    {
      "Name": "Water Walking",
      "Properties": [
        "Ampoule Pod",
        "Kwama Cuttle",
        "Scales",
        "Violet Coprinus"
      ]
    },
    {
      "Name": "Weakness to Fire",
      "Properties": [
        "Heartwood",
        "Holly Berries"
      ]
    },
    {
      "Name": "Weakness to Poison",
      "Properties": [
        "Poison"
      ]
    }
  ]
}
